saida.out
VCD info: dumpfile saida.vcd opened for output.
num1= 0 num2= 0 out= 0 cout=0 (OK)
num1= 0 num2= 1 out= 1 cout=0 (OK)
num1= 1 num2= 0 out= 1 cout=0 (OK)
num1= 1 num2= 1 out= 2 cout=0 (OK)
num1= 2 num2= 2 out= 4 cout=0 (OK)
num1= 3 num2= 3 out= 6 cout=0 (OK)
num1= 4 num2= 4 out= 8 cout=0 (OK)
num1= 5 num2= 5 out=10 cout=0 (OK)
num1= 6 num2= 6 out=12 cout=0 (OK)
num1= 7 num2= 7 out=14 cout=0 (OK)
num1= 8 num2= 8 out= 0 cout=1 (OK)
num1= 9 num2= 9 out= 2 cout=1 (OK)
num1=10 num2=10 out= 4 cout=1 (OK)
num1=11 num2=11 out= 6 cout=1 (OK)
num1=12 num2=12 out= 8 cout=1 (OK)
num1=13 num2=13 out=10 cout=1 (OK)
num1=14 num2=14 out=12 cout=1 (OK)
num1=15 num2=15 out=14 cout=1 (OK)
num1=10 num2= 5 out=15 cout=0 (OK)
num1= 1 num2=15 out= 0 cout=1 (OK)
num1=15 num2= 1 out= 0 cout=1 (OK)
num1= 7 num2= 8 out=15 cout=0 (OK)
num1=15 num2= 0 out=15 cout=0 (OK)
num1= 0 num2=15 out=15 cout=0 (OK)
